{
  "project_info": {
    "project_number": "754076054384",
    "project_id": "tmdb-movil",
    "storage_bucket": "tmdb-movil.appspot.com"
  },
  "client": [
    {
      "client_info": {
        "mobilesdk_app_id": "1:754076054384:android:25c16283a10ff877f295b5",
        "android_client_info": {
          "package_name": "com.frg.TMDB_movil"
        }
      },
      "oauth_client": [],
      "api_key": [
        {
          "current_key": "AIzaSyCQv2jaynHN7mrKJbXLi4bP7SXoUK4NroU"
        }
      ],
      "services": {
        "appinvite_service": {
          "other_platform_oauth_client": []
        }
      }
    },
    {
      "client_info": {
        "mobilesdk_app_id": "1:754076054384:android:077a82f16230ac81f295b5",
        "android_client_info": {
          "package_name": "com.frg.tmdb_movil"
        }
      },
      "oauth_client": [],
      "api_key": [
        {
          "current_key": "AIzaSyCQv2jaynHN7mrKJbXLi4bP7SXoUK4NroU"
        }
      ],
      "services": {
        "appinvite_service": {
          "other_platform_oauth_client": []
        }
      }
    }
  ],
  "configuration_version": "1"
}